idPage10495_Record8_Line0,Pere,name,husband
idPage10495_Record8_Line0,Vafuls,surname,husband
idPage10495_Record8_Line0,sastre,occupation,husband
idPage10495_Record8_Line0,Mataro,location,husband
idPage10495_Record8_Line0,Gabriel,name,husbands_father
idPage10495_Record8_Line0,ahils,surname,husbands_father
idPage10495_Record8_Line0,sastre,occupation,husbands_father
idPage10495_Record8_Line1,Hieronyma,name,husbands_mother
idPage10495_Record8_Line1,Eularia,name,wife
idPage10495_Record8_Line1,donsella,state,wife
idPage10495_Record8_Line1,t,name,wifes_father
idPage10495_Record8_Line1,Coll,surname,wifes_father
idPage10495_Record8_Line1,hostaler,occupation,wifes_father
idPage10495_Record8_Line1,Mar,location,wifes_father
idPage10495_Record8_Line2,borell,location,wifes_father
idPage10495_Record8_Line2,t,name,wifes_mother
