idPage10496_Record1_Line0,Joan,name,husband
idPage10496_Record1_Line0,Bell,surname,husband
idPage10496_Record1_Line0,parayre,occupation,husband
idPage10496_Record1_Line0,Terrassa,location,husband
idPage10496_Record1_Line0,An,name,husbands_father
idPage10496_Record1_Line1,tich,name,husbands_father
idPage10496_Record1_Line1,Bell,surname,husbands_father
idPage10496_Record1_Line1,parayre,occupation,husbands_father
idPage10496_Record1_Line1,Antiga,name,husbands_mother
idPage10496_Record1_Line1,Hieronyma,name,wife
idPage10496_Record1_Line1,donsella,state,wife
idPage10496_Record1_Line2,Joan,name,wifes_father
idPage10496_Record1_Line2,Lach,surname,wifes_father
idPage10496_Record1_Line2,texidor,occupation,wifes_father
idPage10496_Record1_Line2,de,occupation,wifes_father
idPage10496_Record1_Line2,llana,occupation,wifes_father
idPage10496_Record1_Line2,Terrassa,location,wifes_father
idPage10496_Record1_Line2,Elisabeth,name,wifes_mother
