idPage10481_Record2_Line0,Joan,name,husband
idPage10481_Record2_Line0,Vives,surname,husband
idPage10481_Record2_Line0,barber,occupation,husband
idPage10481_Record2_Line0,Albi,location,husband
idPage10481_Record2_Line0,Ar,location,husband
idPage10481_Record2_Line1,chebisbat,location,husband
idPage10481_Record2_Line1,de,location,husband
idPage10481_Record2_Line1,Tarragona,location,husband
idPage10481_Record2_Line1,Bara,location,husband
idPage10481_Record2_Line1,viudo,state,husband
idPage10481_Record2_Line1,Anna,name,wife
idPage10481_Record2_Line1,viuda,state,wife
idPage10481_Record2_Line2,jaume,name,other_person
idPage10481_Record2_Line2,Sistero,surname,other_person
idPage10481_Record2_Line2,botiguer,occupation,wife
idPage10481_Record2_Line2,Bara,location,wife
