idPage10499_Record3_Line0,Joan,name,husband
idPage10499_Record3_Line0,cardador,occupation,husband
idPage10499_Record3_Line0,Bara,location,husband
idPage10499_Record3_Line0,viudo,state,husband
idPage10499_Record3_Line0,Hieronyma,name,wife
idPage10499_Record3_Line1,viuda,state,wife
idPage10499_Record3_Line1,t,name,other_person
idPage10499_Record3_Line1,Tomadell,surname,other_person
idPage10499_Record3_Line1,pages,occupation,wife
idPage10499_Record3_Line1,Massanet,location,wife
idPage10499_Record3_Line1,bisbat,location,wife
idPage10499_Record3_Line1,de,location,wife
idPage10499_Record3_Line1,Gerona,location,wife
