idPage10480_Record5_Line0,Marti,name,husband
idPage10480_Record5_Line0,Clauset,surname,husband
idPage10480_Record5_Line0,adroguer,occupation,husband
idPage10480_Record5_Line0,Bara,location,husband
idPage10480_Record5_Line0,viudo,state,husband
idPage10480_Record5_Line0,Mag,name,wife
idPage10480_Record5_Line1,Valena,name,wife
idPage10480_Record5_Line1,viuda,state,wife
idPage10480_Record5_Line1,jaume,name,other_person
idPage10480_Record5_Line1,Agular,surname,other_person
idPage10480_Record5_Line1,parayre,occupation,wife
idPage10480_Record5_Line1,viueo,state,wife
idPage10480_Record5_Line1,Bara,location,wife
