idPage10501_Record8_Line0,Joan,name,husband
idPage10501_Record8_Line0,Bonant,surname,husband
idPage10501_Record8_Line0,forner,occupation,husband
idPage10501_Record8_Line0,Aaulot,location,husband
idPage10501_Record8_Line0,bisbat,location,husband
idPage10501_Record8_Line0,de,location,husband
idPage10501_Record8_Line0,Gerona,location,husband
idPage10501_Record8_Line1,Bara,location,husband
idPage10501_Record8_Line1,Joan,name,husbands_father
idPage10501_Record8_Line1,Bomnant,surname,husbands_father
idPage10501_Record8_Line1,forner,occupation,husbands_father
idPage10501_Record8_Line1,Mar,name,husbands_mother
idPage10501_Record8_Line2,garida,name,husbands_mother
idPage10501_Record8_Line2,Maria,name,wife
idPage10501_Record8_Line2,dosella,state,wife
idPage10501_Record8_Line2,t,name,wifes_father
idPage10501_Record8_Line2,Carbo,surname,wifes_father
idPage10501_Record8_Line2,collater,occupation,wifes_father
idPage10501_Record8_Line3,Montserada,name,wifes_mother
