idPage10490_Record9_Line0,Thomas,name,husband
idPage10490_Record9_Line0,Cases,surname,husband
idPage10490_Record9_Line0,pages,occupation,husband
idPage10490_Record9_Line0,Bara,location,husband
idPage10490_Record9_Line0,viudo,state,husband
idPage10490_Record9_Line0,Melciora,name,wife
idPage10490_Record9_Line1,viuda,state,wife
idPage10490_Record9_Line1,Ramon,name,other_person
idPage10490_Record9_Line1,Oller,surname,other_person
idPage10490_Record9_Line1,pages,occupation,wife
idPage10490_Record9_Line1,Bara,location,wife
