idPage10481_Record5_Line0,Benet,name,husband
idPage10481_Record5_Line0,Alegre,surname,husband
idPage10481_Record5_Line0,pages,occupation,husband
idPage10481_Record5_Line0,Bara,location,husband
idPage10481_Record5_Line0,viudo,state,husband
idPage10481_Record5_Line0,Ca,name,wife
idPage10481_Record5_Line1,therina,name,wife
idPage10481_Record5_Line1,donsella,state,wife
idPage10481_Record5_Line1,Miquel,name,wifes_father
idPage10481_Record5_Line1,Condal,surname,wifes_father
idPage10481_Record5_Line1,sabater,occupation,wifes_father
idPage10481_Record5_Line1,Bara,location,wifes_father
idPage10481_Record5_Line2,Elisabeth,name,wifes_mother
