idPage10487_Record5_Line0,Joan,name,husband
idPage10487_Record5_Line0,Victoria,name,husband
idPage10487_Record5_Line0,font,surname,husband
idPage10487_Record5_Line0,negociant,occupation,husband
idPage10487_Record5_Line0,Bara,location,husband
idPage10487_Record5_Line0,viudo,state,husband
idPage10487_Record5_Line0,Mar,name,wife
idPage10487_Record5_Line1,garida,name,wife
idPage10487_Record5_Line1,viuda,state,wife
idPage10487_Record5_Line1,Barthomeu,name,other_person
idPage10487_Record5_Line1,Vidal,surname,other_person
idPage10487_Record5_Line1,mestre,occupation,wife
idPage10487_Record5_Line1,de,occupation,wife
idPage10487_Record5_Line1,cases,occupation,wife
idPage10487_Record5_Line1,Bara,location,wife
