idPage10484_Record2_Line0,francesch,name,husband
idPage10484_Record2_Line0,Balle,surname,husband
idPage10484_Record2_Line0,texidor,occupation,husband
idPage10484_Record2_Line0,de,occupation,husband
idPage10484_Record2_Line0,llana,occupation,husband
idPage10484_Record2_Line0,Terrassa,location,husband
idPage10484_Record2_Line1,Bara,location,husband
idPage10484_Record2_Line1,Pau,name,husbands_father
idPage10484_Record2_Line1,Balle,surname,husbands_father
idPage10484_Record2_Line1,texidor,occupation,husbands_father
idPage10484_Record2_Line1,de,occupation,husbands_father
idPage10484_Record2_Line1,llana,occupation,husbands_father
idPage10484_Record2_Line2,Elienor,name,husbands_mother
idPage10484_Record2_Line2,francisca,name,wife
idPage10484_Record2_Line2,donsella,state,wife
idPage10484_Record2_Line2,Sebastia,name,wifes_father
idPage10484_Record2_Line2,Bato,surname,wifes_father
idPage10484_Record2_Line2,carnicer,occupation,wifes_father
idPage10484_Record2_Line2,Bara,location,wifes_father
idPage10484_Record2_Line3,Margarida,name,wifes_mother
