idPage10491_Record9_Line0,Barthomeu,name,husband
idPage10491_Record9_Line0,Castells,surname,husband
idPage10491_Record9_Line0,parayre,occupation,husband
idPage10491_Record9_Line0,Posla,location,husband
idPage10491_Record9_Line0,Caranmus,location,husband
idPage10491_Record9_Line1,Pere,name,husbands_father
idPage10491_Record9_Line1,Castells,surname,husbands_father
idPage10491_Record9_Line1,pages,occupation,husbands_father
idPage10491_Record9_Line1,Hieronyma,name,husbands_mother
idPage10491_Record9_Line1,Hieronyma,name,wife
idPage10491_Record9_Line1,donsella,state,wife
idPage10491_Record9_Line2,jaume,name,wifes_father
idPage10491_Record9_Line2,Deu,surname,wifes_father
idPage10491_Record9_Line2,baxador,occupation,wifes_father
idPage10491_Record9_Line2,Bara,location,wifes_father
idPage10491_Record9_Line2,Hieronyma,name,wifes_mother
