idPage10485_Record6_Line0,Joan,name,husband
idPage10485_Record6_Line0,Vares,surname,husband
idPage10485_Record6_Line0,parayre,occupation,husband
idPage10485_Record6_Line0,Sabadell,location,husband
idPage10485_Record6_Line0,viudo,state,husband
idPage10485_Record6_Line0,Joana,name,wife
idPage10485_Record6_Line1,Joan,name,wifes_father
idPage10485_Record6_Line1,Duran,surname,wifes_father
idPage10485_Record6_Line1,parayre,occupation,wifes_father
idPage10485_Record6_Line1,Sabadell,location,wifes_father
idPage10485_Record6_Line1,Miquela,name,wifes_mother
