idPage10501_Record5_Line0,Hieronym,name,husband
idPage10501_Record5_Line0,Badia,surname,husband
idPage10501_Record5_Line0,retorsedor,occupation,husband
idPage10501_Record5_Line0,de,occupation,husband
idPage10501_Record5_Line0,seda,occupation,husband
idPage10501_Record5_Line0,Hieronym,name,husbands_father
idPage10501_Record5_Line1,Badia,surname,husbands_father
idPage10501_Record5_Line1,retorsedor,occupation,husbands_father
idPage10501_Record5_Line1,de,occupation,husbands_father
idPage10501_Record5_Line1,leda,occupation,husbands_father
idPage10501_Record5_Line1,Elisabeth,name,husbands_mother
idPage10501_Record5_Line1,Maria,name,wife
idPage10501_Record5_Line1,dosella,state,wife
idPage10501_Record5_Line2,Joan,name,wifes_father
idPage10501_Record5_Line2,Dareta,surname,wifes_father
idPage10501_Record5_Line2,Elisabeth,name,wifes_mother
