idPage10479_Record6_Line0,Pere,name,husband
idPage10479_Record6_Line0,Mas,surname,husband
idPage10479_Record6_Line0,corredor,occupation,husband
idPage10479_Record6_Line0,de,occupation,husband
idPage10479_Record6_Line0,coll,occupation,husband
idPage10479_Record6_Line0,Bara,location,husband
idPage10479_Record6_Line0,viudo,state,husband
idPage10479_Record6_Line0,Ma,name,wife
idPage10479_Record6_Line1,ria,name,wife
idPage10479_Record6_Line1,viuda,state,wife
idPage10479_Record6_Line1,Hieronym,name,other_person
idPage10479_Record6_Line1,Sta,surname,other_person
idPage10479_Record6_Line1,Dana,surname,wife
idPage10479_Record6_Line1,mestre,occupation,wife
idPage10479_Record6_Line1,de,occupation,wife
idPage10479_Record6_Line1,cases,occupation,wife
idPage10479_Record6_Line1,Bara,location,wife
