idPage10492_Record7_Line0,Sebastia,name,husband
idPage10492_Record7_Line0,Soler,surname,husband
idPage10492_Record7_Line0,algutsir,occupation,husband
idPage10492_Record7_Line0,eotraordmari,occupation,husband
idPage10492_Record7_Line0,Bara,location,husband
idPage10492_Record7_Line0,viudo,state,husband
idPage10492_Record7_Line0,Mar,name,wife
idPage10492_Record7_Line1,yanna,name,wife
idPage10492_Record7_Line1,viuda,state,wife
idPage10492_Record7_Line1,t,name,other_person
idPage10492_Record7_Line1,CAgusti,name,other_person
idPage10492_Record7_Line1,hastaler,occupation,wife
