idPage10487_Record7_Line0,Joan,name,husband
idPage10487_Record7_Line0,Milans,surname,husband
idPage10487_Record7_Line0,mariner,occupation,husband
idPage10487_Record7_Line0,Canet,location,husband
idPage10487_Record7_Line0,bisbat,location,husband
idPage10487_Record7_Line0,de,location,husband
idPage10487_Record7_Line0,Gerona,location,husband
idPage10487_Record7_Line1,Marchi,name,husbands_father
idPage10487_Record7_Line1,Antoni,name,husbands_father
idPage10487_Record7_Line1,Milans,surname,husbands_father
idPage10487_Record7_Line1,mariner,occupation,husbands_father
idPage10487_Record7_Line1,t,name,husbands_mother
idPage10487_Record7_Line1,Mar,name,wife
idPage10487_Record7_Line2,garida,name,wife
idPage10487_Record7_Line2,dosella,state,wife
idPage10487_Record7_Line2,Bernat,name,wifes_father
idPage10487_Record7_Line2,Mathia,surname,wifes_father
idPage10487_Record7_Line2,parayre,occupation,wifes_father
idPage10487_Record7_Line2,Terrassa,location,wifes_father
idPage10487_Record7_Line3,Elisabeth,name,wifes_mother
