idPage10499_Record7_Line0,Antoni,name,husband
idPage10499_Record7_Line0,Piferrer,surname,husband
idPage10499_Record7_Line0,pescador,occupation,husband
idPage10499_Record7_Line0,Vilassar,location,husband
idPage10499_Record7_Line0,Antoni,name,husbands_father
idPage10499_Record7_Line1,lPiferrer,surname,husbands_father
idPage10499_Record7_Line1,pescador,occupation,husbands_father
idPage10499_Record7_Line1,Maryanna,name,husbands_mother
idPage10499_Record7_Line1,Angela,name,wife
idPage10499_Record7_Line1,donsella,state,wife
idPage10499_Record7_Line2,Barthomeu,name,wifes_father
idPage10499_Record7_Line2,Llavaneres,surname,wifes_father
idPage10499_Record7_Line2,pages,occupation,wifes_father
idPage10499_Record7_Line2,Vilassar,location,wifes_father
idPage10499_Record7_Line2,Angela,name,wifes_mother
