idPage10482_Record3_Line0,Pere,name,husband
idPage10482_Record3_Line0,Argenmi,surname,husband
idPage10482_Record3_Line0,sastre,occupation,husband
idPage10482_Record3_Line0,Bara,location,husband
idPage10482_Record3_Line0,viudo,state,husband
idPage10482_Record3_Line0,Elisabeth,name,wife
idPage10482_Record3_Line0,donsella,state,wife
idPage10482_Record3_Line1,Pere,name,wifes_father
idPage10482_Record3_Line1,Climent,surname,wifes_father
idPage10482_Record3_Line1,flassader,occupation,wifes_father
idPage10482_Record3_Line1,Bara,location,wifes_father
idPage10482_Record3_Line1,Olrient,name,wifes_mother
