idPage10498_Record8_Line0,Pere,name,husband
idPage10498_Record8_Line0,Pau,name,husband
idPage10498_Record8_Line0,freto,surname,husband
idPage10498_Record8_Line0,parayre,occupation,husband
idPage10498_Record8_Line0,Solsona,location,husband
idPage10498_Record8_Line0,Bara,location,husband
idPage10498_Record8_Line1,Joan,name,husbands_father
idPage10498_Record8_Line1,freto,surname,husbands_father
idPage10498_Record8_Line1,parayre,occupation,husbands_father
idPage10498_Record8_Line1,Sperasa,name,husbands_mother
idPage10498_Record8_Line1,Catherina,name,wife
idPage10498_Record8_Line1,dosella,state,wife
idPage10498_Record8_Line2,Raphel,name,wifes_father
idPage10498_Record8_Line2,Castanyer,surname,wifes_father
idPage10498_Record8_Line2,texidor,occupation,wifes_father
idPage10498_Record8_Line2,de,occupation,wifes_father
idPage10498_Record8_Line2,lli,occupation,wifes_father
idPage10498_Record8_Line2,Seva,location,wifes_father
idPage10498_Record8_Line2,bisbat,location,wifes_father
idPage10498_Record8_Line2,de,location,wifes_father
idPage10498_Record8_Line2,Victh,location,wifes_father
idPage10498_Record8_Line3,Raphela,name,wifes_mother
