idPage10486_Record7_Line0,Magi,name,husband
idPage10486_Record7_Line0,Dalmases,surname,husband
idPage10486_Record7_Line0,texidor,occupation,husband
idPage10486_Record7_Line0,de,occupation,husband
idPage10486_Record7_Line0,llana,occupation,husband
idPage10486_Record7_Line0,Prats,location,husband
idPage10486_Record7_Line1,ery,location,husband
idPage10486_Record7_Line1,bisbat,location,husband
idPage10486_Record7_Line1,de,location,husband
idPage10486_Record7_Line1,Vich,location,husband
idPage10486_Record7_Line1,Pere,name,husbands_father
idPage10486_Record7_Line1,Dalmass,surname,husbands_father
idPage10486_Record7_Line1,pages,occupation,husbands_father
idPage10486_Record7_Line2,Eleonor,name,husbands_mother
idPage10486_Record7_Line2,Maryanna,name,wife
idPage10486_Record7_Line2,viuda,state,wife
idPage10486_Record7_Line2,t,name,other_person
idPage10486_Record7_Line2,Arbones,surname,other_person
idPage10486_Record7_Line2,mestre,occupation,wife
idPage10486_Record7_Line2,de,occupation,wife
idPage10486_Record7_Line2,cases,occupation,wife
