idPage10501_Record1_Line0,Pere,name,husband
idPage10501_Record1_Line0,Bonet,surname,husband
idPage10501_Record1_Line0,serrador,occupation,husband
idPage10501_Record1_Line0,frança,location,husband
idPage10501_Record1_Line0,viudo,state,husband
idPage10501_Record1_Line1,Anna,name,wife
idPage10501_Record1_Line1,viuda,state,wife
idPage10501_Record1_Line1,Antoni,name,other_person
idPage10501_Record1_Line1,Ortigo,surname,other_person
idPage10501_Record1_Line1,texidor,occupation,wife
idPage10501_Record1_Line1,de,occupation,wife
idPage10501_Record1_Line1,llana,occupation,wife
idPage10501_Record1_Line1,Bara,location,wife
