idPage10489_Record8_Line0,Galcera,name,husband
idPage10489_Record8_Line0,Taraunt,surname,husband
idPage10489_Record8_Line0,parayre,occupation,husband
idPage10489_Record8_Line0,Sparaguera,location,husband
idPage10489_Record8_Line1,Antoni,name,husbands_father
idPage10489_Record8_Line1,Caramunt,surname,husbands_father
idPage10489_Record8_Line1,pages,occupation,husbands_father
idPage10489_Record8_Line1,Eleonor,name,husbands_mother
idPage10489_Record8_Line1,Madrona,name,wife
idPage10489_Record8_Line2,donsella,state,wife
idPage10489_Record8_Line2,Nicolau,name,wifes_father
idPage10489_Record8_Line2,Vidal,surname,wifes_father
idPage10489_Record8_Line2,parayre,occupation,wifes_father
idPage10489_Record8_Line2,Sparaguera,location,wifes_father
idPage10489_Record8_Line2,t,name,wifes_mother
