idPage10479_Record1_Line0,Luys,name,husband
idPage10479_Record1_Line0,Torres,surname,husband
idPage10479_Record1_Line0,nots,occupation,husband
idPage10479_Record1_Line0,Bara,location,husband
idPage10479_Record1_Line0,Luys,name,husbands_father
idPage10479_Record1_Line1,Torres,surname,husbands_father
idPage10479_Record1_Line1,nots,occupation,husbands_father
idPage10479_Record1_Line1,Bara,location,husbands_father
idPage10479_Record1_Line1,Angela,name,husbands_mother
idPage10479_Record1_Line1,Catherina,name,wife
idPage10479_Record1_Line1,do,state,wife
idPage10479_Record1_Line2,sella,state,wife
idPage10479_Record1_Line2,Antoni,name,wifes_father
idPage10479_Record1_Line2,fabrer,surname,wifes_father
idPage10479_Record1_Line2,guanter,occupation,wifes_father
idPage10479_Record1_Line2,Bara,location,wifes_father
idPage10479_Record1_Line2,Mathiana,name,wifes_mother
