idPage10506_Record2_Line0,Pere,name,husband
idPage10506_Record2_Line0,Antich,surname,husband
idPage10506_Record2_Line0,pages,occupation,husband
idPage10506_Record2_Line0,Vallcarcara,location,husband
idPage10506_Record2_Line0,Pere,name,husbands_father
idPage10506_Record2_Line0,Antich,surname,husbands_father
idPage10506_Record2_Line1,pages,occupation,husbands_father
idPage10506_Record2_Line1,Antonia,name,husbands_mother
idPage10506_Record2_Line1,Angela,name,wife
idPage10506_Record2_Line1,viuda,state,wife
idPage10506_Record2_Line1,Henrich,name,other_person
idPage10506_Record2_Line1,Vila,surname,other_person
idPage10506_Record2_Line1,pages,occupation,wife
idPage10506_Record2_Line2,Tagamanent,location,wife
idPage10506_Record2_Line2,bisbat,location,wife
idPage10506_Record2_Line2,de,location,wife
idPage10506_Record2_Line2,Vich,location,wife
