idPage10489_Record12_Line0,Sebastia,name,husband
idPage10489_Record12_Line0,Serra,surname,husband
idPage10489_Record12_Line0,pages,occupation,husband
idPage10489_Record12_Line0,la,location,husband
idPage10489_Record12_Line0,Geltru,location,husband
idPage10489_Record12_Line0,franh,name,husbands_father
idPage10489_Record12_Line0,Serra,surname,husbands_father
idPage10489_Record12_Line1,pages,occupation,husbands_father
idPage10489_Record12_Line1,Elisabeth,name,husbands_mother
idPage10489_Record12_Line1,Catherina,name,wife
idPage10489_Record12_Line1,donsella,state,wife
idPage10489_Record12_Line1,Ga,name,wifes_father
idPage10489_Record12_Line2,riel,name,wifes_father
idPage10489_Record12_Line2,Ca,surname,wifes_father
idPage10489_Record12_Line2,sanovet,surname,wifes_father
idPage10489_Record12_Line2,pages,occupation,wifes_father
idPage10489_Record12_Line2,Vilanova,location,wifes_father
idPage10489_Record12_Line2,Catherina,name,wifes_mother
