idPage10487_Record1_Line0,Miquel,name,husband
idPage10487_Record1_Line0,Sirera,surname,husband
idPage10487_Record1_Line0,parayre,occupation,husband
idPage10487_Record1_Line0,Puigcerda,location,husband
idPage10487_Record1_Line0,bisbat,location,husband
idPage10487_Record1_Line0,de,location,husband
idPage10487_Record1_Line1,Urgell,location,husband
idPage10487_Record1_Line1,Bara,location,husband
idPage10487_Record1_Line1,Joan,name,husbands_father
idPage10487_Record1_Line1,Sirera,surname,husbands_father
idPage10487_Record1_Line1,parayre,occupation,husbands_father
idPage10487_Record1_Line1,francisca,name,husbands_mother
idPage10487_Record1_Line2,Elisabeth,name,wife
idPage10487_Record1_Line2,viuda,state,wife
idPage10487_Record1_Line2,t,name,other_person
idPage10487_Record1_Line2,Ramera,surname,other_person
idPage10487_Record1_Line2,mestre,occupation,wife
idPage10487_Record1_Line2,de,occupation,wife
idPage10487_Record1_Line2,cases,occupation,wife
idPage10487_Record1_Line2,Solsona,location,wife
