idPage10499_Record2_Line0,jaume,name,husband
idPage10499_Record2_Line0,Campins,surname,husband
idPage10499_Record2_Line0,pages,occupation,husband
idPage10499_Record2_Line0,Vilassary,location,husband
idPage10499_Record2_Line0,Bernat,name,husbands_father
idPage10499_Record2_Line0,Campins,surname,husbands_father
idPage10499_Record2_Line1,pages,occupation,husbands_father
idPage10499_Record2_Line1,Anna,name,husbands_mother
idPage10499_Record2_Line1,Maria,name,wife
idPage10499_Record2_Line1,donsella,state,wife
idPage10499_Record2_Line1,t,name,wifes_father
idPage10499_Record2_Line1,Julia,surname,wifes_father
idPage10499_Record2_Line1,pages,occupation,wifes_father
idPage10499_Record2_Line1,t,name,wifes_mother
idPage10499_Record2_Line2,tots,location,wife
idPage10499_Record2_Line2,de,location,wife
idPage10499_Record2_Line2,dita,location,wife
idPage10499_Record2_Line2,parrochia,location,wife
