idPage10506_Record3_Line0,Bernat,name,husband
idPage10506_Record3_Line0,Bassa,surname,husband
idPage10506_Record3_Line0,pages,occupation,husband
idPage10506_Record3_Line0,Vilassar,location,husband
idPage10506_Record3_Line0,jaume,name,husbands_father
idPage10506_Record3_Line0,Bassa,surname,husbands_father
idPage10506_Record3_Line1,pages,occupation,husbands_father
idPage10506_Record3_Line1,Eleonor,name,husbands_mother
idPage10506_Record3_Line1,Maria,name,wife
idPage10506_Record3_Line1,donsella,state,wife
idPage10506_Record3_Line1,Bernat,name,wifes_father
idPage10506_Record3_Line1,Agell,surname,wifes_father
idPage10506_Record3_Line2,pages,occupation,wifes_father
idPage10506_Record3_Line2,Catherina,name,wifes_mother
