idPage10498_Record9_Line0_Word5,Pau,name,husband
idPage10498_Record9_Line0_Word6,Llopart,surname,husband
idPage10498_Record9_Line0_Word7,parxer,occupation,husband
idPage10498_Record9_Line0_Word9,Bara,location,husband
idPage10498_Record9_Line0_Word12,Vices,name,husbands_father
idPage10498_Record9_Line1_Word0,Llopart,surname,husbands_father
idPage10498_Record9_Line1_Word1,mercader,occupation,husbands_father
idPage10498_Record9_Line1_Word4,Hieronyma,name,husbands_mother
idPage10498_Record9_Line1_Word7,Anna,name,wife
idPage10498_Record9_Line1_Word8,Maria,name,wife
idPage10498_Record9_Line1_Word9,dosella,state,wife
idPage10498_Record9_Line2_Word2,Joa,name,wifes_father
idPage10498_Record9_Line2_Word3,Caselles,surname,wifes_father
idPage10498_Record9_Line2_Word4,cauidith,occupation,wifes_father
idPage10498_Record9_Line2_Word6,Bara,location,wifes_father
idPage10498_Record9_Line2_Word10,Anna,name,wifes_mother
