idPage10501_Record10_Line0_Word4,Guillem,name,husband
idPage10501_Record10_Line0_Word5,faura,surname,husband
idPage10501_Record10_Line0_Word6,serrador,occupation,husband
idPage10501_Record10_Line0_Word8,frança,location,husband
idPage10501_Record10_Line1_Word0,Sabadell,location,husband
idPage10501_Record10_Line1_Word2,Eularia,name,wife
idPage10501_Record10_Line1_Word3,dosella,state,wife
idPage10501_Record10_Line1_Word6,Antoni,name,wifes_father
idPage10501_Record10_Line1_Word7,Ros,surname,wifes_father
idPage10501_Record10_Line1_Word8,parayre,occupation,wifes_father
idPage10501_Record10_Line2_Word0,Vilafranca,location,wifes_father
idPage10501_Record10_Line2_Word3,Antiga,name,wifes_mother
