idPage10487_Record11_Line0_Word4,Pere,name,husband
idPage10487_Record11_Line0_Word5,Ros,surname,husband
idPage10487_Record11_Line0_Word6,cotxero,occupation,husband
idPage10487_Record11_Line0_Word8,regne,location,husband
idPage10487_Record11_Line0_Word9,de,location,husband
idPage10487_Record11_Line0_Word10,frança,location,husband
idPage10487_Record11_Line0_Word13,Bara,location,husband
idPage10487_Record11_Line1_Word1,Magdalena,name,wife
idPage10487_Record11_Line1_Word2,dosella,state,wife
idPage10487_Record11_Line1_Word5,t,name,wifes_father
idPage10487_Record11_Line1_Word6,Saneta,surname,wifes_father
idPage10487_Record11_Line1_Word7,pages,occupation,wifes_father
idPage10487_Record11_Line1_Word9,Berga,location,wifes_father
idPage10487_Record11_Line1_Word10,bisbat,location,wifes_father
idPage10487_Record11_Line2_Word0,de,location,wifes_father
idPage10487_Record11_Line2_Word1,Urgell,location,wifes_father
idPage10487_Record11_Line2_Word4,joana,name,wifes_mother
