idPage10500_Record6_Line0_Word4,Joan,name,husband
idPage10500_Record6_Line0_Word5,Thomas,surname,husband
idPage10500_Record6_Line0_Word6,moliner,occupation,husband
idPage10500_Record6_Line0_Word8,frança,location,husband
idPage10500_Record6_Line0_Word11,Servello,location,husband
idPage10500_Record6_Line1_Word1,Elisabeth,name,wife
idPage10500_Record6_Line1_Word2,donsella,state,wife
idPage10500_Record6_Line1_Word5,Antoni,name,wifes_father
idPage10500_Record6_Line1_Word6,ferrer,surname,wifes_father
idPage10500_Record6_Line1_Word7,mestre,occupation,wifes_father
idPage10500_Record6_Line1_Word8,de,occupation,wifes_father
idPage10500_Record6_Line1_Word9,cases,occupation,wifes_father
idPage10500_Record6_Line2_Word1,Elisabeth,name,wifes_mother
