idPage10483_Record4_Line0_Word5,Juan,name,husband
idPage10483_Record4_Line0_Word6,Prat,surname,husband
idPage10483_Record4_Line0_Word7,pages,occupation,husband
idPage10483_Record4_Line0_Word9,St,location,husband
idPage10483_Record4_Line0_Word10,Marti,location,husband
idPage10483_Record4_Line0_Word11,de,location,husband
idPage10483_Record4_Line0_Word12,Cobremunt,location,husband
idPage10483_Record4_Line0_Word13,bisbat,location,husband
idPage10483_Record4_Line1_Word0,de,location,husband
idPage10483_Record4_Line1_Word1,Vich,location,husband
idPage10483_Record4_Line1_Word4,Bara,location,husband
idPage10483_Record4_Line1_Word5,viudo,state,husband
idPage10483_Record4_Line1_Word7,Hieronyma,name,wife
idPage10483_Record4_Line1_Word8,viuda,state,wife
idPage10483_Record4_Line1_Word10,Raumo,name,other_person
idPage10483_Record4_Line1_Word11,Comes,surname,other_person
idPage10483_Record4_Line2_Word0,pages,occupation,wife
idPage10483_Record4_Line2_Word2,Bara,location,wife
