idPage10501_Record6_Line0_Word5,francesch,name,husband
idPage10501_Record6_Line0_Word6,de,surname,husband
idPage10501_Record6_Line0_Word7,Aguillo,surname,husband
idPage10501_Record6_Line0_Word8,donsell,occupation,husband
idPage10501_Record6_Line0_Word11,Vegueria,location,husband
idPage10501_Record6_Line0_Word12,de,location,husband
idPage10501_Record6_Line0_Word13,Cervera,location,husband
idPage10501_Record6_Line1_Word0,bisbat,location,husband
idPage10501_Record6_Line1_Word1,de,location,husband
idPage10501_Record6_Line1_Word2,Urgell,location,husband
idPage10501_Record6_Line1_Word5,Joan,name,husbands_father
idPage10501_Record6_Line1_Word6,de,surname,husbands_father
idPage10501_Record6_Line1_Word7,Agullo,surname,husbands_father
idPage10501_Record6_Line1_Word8,donsell,occupation,husbands_father
idPage10501_Record6_Line1_Word14,Hierony,name,husbands_mother
idPage10501_Record6_Line2_Word3,Magdalena,name,wife
idPage10501_Record6_Line2_Word4,donsella,state,wife
idPage10501_Record6_Line2_Word8,Antoni,name,wifes_father
idPage10501_Record6_Line2_Word9,Piella,surname,wifes_father
idPage10501_Record6_Line3_Word0,pistre,occupation,wifes_father
idPage10501_Record6_Line3_Word2,sa,location,wifes_father
idPage10501_Record6_Line3_Word3,Mag,location,wifes_father
idPage10501_Record6_Line3_Word8,Anna,name,wifes_mother
