idPage10498_Record11_Line0_Word4,jaume,name,husband
idPage10498_Record11_Line0_Word5,Gros,surname,husband
idPage10498_Record11_Line0_Word6,ferrer,occupation,husband
idPage10498_Record11_Line0_Word8,Caldes,location,husband
idPage10498_Record11_Line0_Word9,bisbat,location,husband
idPage10498_Record11_Line0_Word10,de,location,husband
idPage10498_Record11_Line0_Word11,Vich,location,husband
idPage10498_Record11_Line0_Word14,Ni,name,husbands_father
idPage10498_Record11_Line1_Word0,colau,name,husbands_father
idPage10498_Record11_Line1_Word1,Gros,surname,husbands_father
idPage10498_Record11_Line1_Word2,pages,occupation,husbands_father
idPage10498_Record11_Line1_Word5,Catherina,name,husbands_mother
idPage10498_Record11_Line1_Word8,Anna,name,wife
idPage10498_Record11_Line1_Word9,donsella,state,wife
idPage10498_Record11_Line2_Word1,jaume,name,wifes_father
idPage10498_Record11_Line2_Word2,Serra,surname,wifes_father
idPage10498_Record11_Line2_Word3,carnicer,occupation,wifes_father
idPage10498_Record11_Line2_Word5,Bara,location,wifes_father
idPage10498_Record11_Line2_Word8,Elisabeth,name,wifes_mother
