idPage10501_Record1_Line0_Word6,Pere,name,husband
idPage10501_Record1_Line0_Word7,Bonet,surname,husband
idPage10501_Record1_Line0_Word8,serrador,occupation,husband
idPage10501_Record1_Line0_Word10,frança,location,husband
idPage10501_Record1_Line0_Word11,viudo,state,husband
idPage10501_Record1_Line1_Word0,Anna,name,wife
idPage10501_Record1_Line1_Word1,viuda,state,wife
idPage10501_Record1_Line1_Word3,Antoni,name,other_person
idPage10501_Record1_Line1_Word4,Ortigo,surname,other_person
idPage10501_Record1_Line1_Word5,texidor,occupation,wife
idPage10501_Record1_Line1_Word6,de,occupation,wife
idPage10501_Record1_Line1_Word7,llana,occupation,wife
idPage10501_Record1_Line1_Word9,Bara,location,wife
