idPage10483_Record5_Line0_Word5,Pere,name,husband
idPage10483_Record5_Line0_Word6,Rovira,surname,husband
idPage10483_Record5_Line0_Word7,pages,occupation,husband
idPage10483_Record5_Line0_Word9,Belvell,location,husband
idPage10483_Record5_Line0_Word12,Pere,name,husbands_father
idPage10483_Record5_Line1_Word0,Rovira,surname,husbands_father
idPage10483_Record5_Line1_Word1,pages,occupation,husbands_father
idPage10483_Record5_Line1_Word4,Antonia,name,husbands_mother
idPage10483_Record5_Line1_Word7,Catherina,name,wife
idPage10483_Record5_Line1_Word8,viuda,state,wife
idPage10483_Record5_Line1_Word10,Montser,name,other_person
idPage10483_Record5_Line2_Word0,rat,name,other_person
idPage10483_Record5_Line2_Word1,Bartra,surname,other_person
idPage10483_Record5_Line2_Word2,pages,occupation,wife
idPage10483_Record5_Line2_Word4,St,location,other_person
idPage10483_Record5_Line2_Word5,Climent,location,other_person
idPage10483_Record5_Line2_Word6,de,location,wife
idPage10483_Record5_Line2_Word7,Llobregat,location,other_person
