idPage10498_Record1_Line0_Word5,Pere,name,husband
idPage10498_Record1_Line0_Word6,Carbonell,surname,husband
idPage10498_Record1_Line0_Word7,baxador,occupation,husband
idPage10498_Record1_Line0_Word9,Mataro,location,husband
idPage10498_Record1_Line0_Word12,Bartho,name,husbands_father
idPage10498_Record1_Line1_Word0,meu,name,husbands_father
idPage10498_Record1_Line1_Word1,Carbonell,surname,husbands_father
idPage10498_Record1_Line1_Word2,mariner,occupation,husbands_father
idPage10498_Record1_Line1_Word5,Margarida,name,husbands_mother
idPage10498_Record1_Line1_Word8,Catherina,name,wife
idPage10498_Record1_Line1_Word9,don,state,wife
idPage10498_Record1_Line2_Word0,sella,state,wife
idPage10498_Record1_Line2_Word3,Antoni,name,wifes_father
idPage10498_Record1_Line2_Word4,Planes,surname,wifes_father
idPage10498_Record1_Line2_Word5,vedrier,occupation,wifes_father
idPage10498_Record1_Line2_Word8,Antiga,name,wifes_mother
idPage10498_Record1_Line3_Word0,dita,location,wife
idPage10498_Record1_Line3_Word1,vila,location,wife
