idPage10506_Record10_Line0_Word4,Joan,name,husband
idPage10506_Record10_Line0_Word5,Braudo,surname,husband
idPage10506_Record10_Line0_Word6,treballador,occupation,husband
idPage10506_Record10_Line0_Word8,Regne,location,husband
idPage10506_Record10_Line0_Word9,de,location,husband
idPage10506_Record10_Line0_Word10,frança,location,husband
idPage10506_Record10_Line1_Word2,Vilafranca,location,husband
idPage10506_Record10_Line1_Word3,de,location,husband
idPage10506_Record10_Line1_Word4,Panaders,location,husband
idPage10506_Record10_Line1_Word6,Sebastiana,name,wife
idPage10506_Record10_Line1_Word7,viuda,state,wife
idPage10506_Record10_Line1_Word9,t,name,other_person
idPage10506_Record10_Line1_Word10,Vellat,surname,other_person
idPage10506_Record10_Line2_Word0,treballador,occupation,wife
idPage10506_Record10_Line2_Word2,regne,location,wife
idPage10506_Record10_Line2_Word3,de,location,wife
idPage10506_Record10_Line2_Word4,frança,location,wife
