idPage10479_Record7_Line0_Word4,Joan,name,husband
idPage10479_Record7_Line0_Word6,Causanell,surname,husband
idPage10479_Record7_Line0_Word7,serrador,occupation,husband
idPage10479_Record7_Line0_Word9,regne,location,husband
idPage10479_Record7_Line0_Word10,de,location,husband
idPage10479_Record7_Line1_Word0,frança,location,husband
idPage10479_Record7_Line1_Word3,Bara,location,husband
idPage10479_Record7_Line1_Word5,Elisabeth,name,wife
idPage10479_Record7_Line1_Word6,viuda,state,wife
idPage10479_Record7_Line1_Word8,Antoni,name,other_person
idPage10479_Record7_Line1_Word9,Camts,surname,other_person
idPage10479_Record7_Line2_Word0,pescador,occupation,wife
idPage10479_Record7_Line2_Word2,frança,location,wife
idPage10479_Record7_Line2_Word5,Bara,location,wife
