idPage10487_Record9_Line0_Word5,Alexandre,name,husband
idPage10487_Record9_Line0_Word6,Bugunya,surname,husband
idPage10487_Record9_Line0_Word7,pages,occupation,husband
idPage10487_Record9_Line0_Word9,Terrassa,location,husband
idPage10487_Record9_Line1_Word2,Antoni,name,husbands_father
idPage10487_Record9_Line1_Word3,Joan,name,husbands_father
idPage10487_Record9_Line1_Word4,Bugunya,surname,husbands_father
idPage10487_Record9_Line1_Word5,pages,occupation,husbands_father
idPage10487_Record9_Line1_Word9,Beneta,name,husbands_mother
idPage10487_Record9_Line1_Word11,Pau,name,wife
idPage10487_Record9_Line2_Word0,La,surname,wife
idPage10487_Record9_Line2_Word1,donsella,state,wife
idPage10487_Record9_Line2_Word4,Nicolau,name,wifes_father
idPage10487_Record9_Line2_Word5,Serra,surname,wifes_father
idPage10487_Record9_Line2_Word6,pages,occupation,wifes_father
idPage10487_Record9_Line2_Word8,Stlugat,location,wifes_father
idPage10487_Record9_Line2_Word11,Antonia,name,wifes_mother
