idPage10495_Record4_Line0_Word4,Joan,name,husband
idPage10495_Record4_Line0_Word5,Boria,surname,husband
idPage10495_Record4_Line0_Word6,pater,occupation,husband
idPage10495_Record4_Line0_Word7,viudo,state,husband
idPage10495_Record4_Line0_Word9,Clara,name,wife
idPage10495_Record4_Line0_Word10,viuda,state,wife
idPage10495_Record4_Line0_Word12,t,name,other_person
idPage10495_Record4_Line1_Word0,Boxer,surname,other_person
idPage10495_Record4_Line1_Word1,pages,occupation,wife
idPage10495_Record4_Line1_Word3,frança,location,wife
idPage10495_Record4_Line1_Word6,Bara,location,wife
